^C:\USERS\CAMEL\DESKTOP\BANKAPP\BANCA.CPP
/c /I"C:\USERS\CAMEL\DESKTOP\FACULTA2\PDP\VCPKG\SCRIPTS\BUILDSYSTEMS\MSBUILD\..\..\..\INSTALLED\X86-WINDOWS\INCLUDE" /ZI /JMC /nologo /W3 /WX- /diagnostics:column /sdl /Od /Oy- /D WIN32 /D _DEBUG /D _CONSOLE /D _UNICODE /D UNICODE /Gm- /EHsc /RTC1 /MDd /GS /fp:precise /permissive- /Zc:wchar_t /Zc:forScope /Zc:inline /Fo"DEBUG\\" /Fd"DEBUG\VC142.PDB" /Gd /TP /analyze- /FC C:\USERS\CAMEL\DESKTOP\BANKAPP\BANCA.CPP
^C:\USERS\CAMEL\DESKTOP\BANKAPP\BANKAPP.CPP
/c /I"C:\USERS\CAMEL\DESKTOP\FACULTA2\PDP\VCPKG\SCRIPTS\BUILDSYSTEMS\MSBUILD\..\..\..\INSTALLED\X86-WINDOWS\INCLUDE" /ZI /JMC /nologo /W3 /WX- /diagnostics:column /sdl /Od /Oy- /D WIN32 /D _DEBUG /D _CONSOLE /D _UNICODE /D UNICODE /Gm- /EHsc /RTC1 /MDd /GS /fp:precise /permissive- /Zc:wchar_t /Zc:forScope /Zc:inline /Fo"DEBUG\\" /Fd"DEBUG\VC142.PDB" /Gd /TP /analyze- /FC C:\USERS\CAMEL\DESKTOP\BANKAPP\BANKAPP.CPP
^C:\USERS\CAMEL\DESKTOP\BANKAPP\CONT.CPP
/c /I"C:\USERS\CAMEL\DESKTOP\FACULTA2\PDP\VCPKG\SCRIPTS\BUILDSYSTEMS\MSBUILD\..\..\..\INSTALLED\X86-WINDOWS\INCLUDE" /ZI /JMC /nologo /W3 /WX- /diagnostics:column /sdl /Od /Oy- /D WIN32 /D _DEBUG /D _CONSOLE /D _UNICODE /D UNICODE /Gm- /EHsc /RTC1 /MDd /GS /fp:precise /permissive- /Zc:wchar_t /Zc:forScope /Zc:inline /Fo"DEBUG\\" /Fd"DEBUG\VC142.PDB" /Gd /TP /analyze- /FC C:\USERS\CAMEL\DESKTOP\BANKAPP\CONT.CPP
^C:\USERS\CAMEL\DESKTOP\BANKAPP\EXCEPTIONS.CPP
/c /I"C:\USERS\CAMEL\DESKTOP\FACULTA2\PDP\VCPKG\SCRIPTS\BUILDSYSTEMS\MSBUILD\..\..\..\INSTALLED\X86-WINDOWS\INCLUDE" /ZI /JMC /nologo /W3 /WX- /diagnostics:column /sdl /Od /Oy- /D WIN32 /D _DEBUG /D _CONSOLE /D _UNICODE /D UNICODE /Gm- /EHsc /RTC1 /MDd /GS /fp:precise /permissive- /Zc:wchar_t /Zc:forScope /Zc:inline /Fo"DEBUG\\" /Fd"DEBUG\VC142.PDB" /Gd /TP /analyze- /FC C:\USERS\CAMEL\DESKTOP\BANKAPP\EXCEPTIONS.CPP
