^C:\USERS\CAMEL\DESKTOP\BANKAPP\DEBUG\BANCA.OBJ|C:\USERS\CAMEL\DESKTOP\BANKAPP\DEBUG\BANKAPP.OBJ|C:\USERS\CAMEL\DESKTOP\BANKAPP\DEBUG\CONT.OBJ|C:\USERS\CAMEL\DESKTOP\BANKAPP\DEBUG\EXCEPTIONS.OBJ
/OUT:"C:\USERS\CAMEL\DESKTOP\BANKAPP\DEBUG\BANKAPP.EXE" /INCREMENTAL /NOLOGO /LIBPATH:"C:\USERS\CAMEL\DESKTOP\FACULTA2\PDP\VCPKG\SCRIPTS\BUILDSYSTEMS\MSBUILD\..\..\..\INSTALLED\X86-WINDOWS\DEBUG\LIB" /LIBPATH:"C:\USERS\CAMEL\DESKTOP\FACULTA2\PDP\VCPKG\SCRIPTS\BUILDSYSTEMS\MSBUILD\..\..\..\INSTALLED\X86-WINDOWS\DEBUG\LIB\MANUAL-LINK" KERNEL32.LIB USER32.LIB GDI32.LIB WINSPOOL.LIB COMDLG32.LIB ADVAPI32.LIB SHELL32.LIB OLE32.LIB OLEAUT32.LIB UUID.LIB ODBC32.LIB ODBCCP32.LIB "C:\USERS\CAMEL\DESKTOP\FACULTA2\PDP\VCPKG\SCRIPTS\BUILDSYSTEMS\MSBUILD\..\..\..\INSTALLED\X86-WINDOWS\DEBUG\LIB\*.LIB" /MANIFEST /MANIFESTUAC:"level='asInvoker' uiAccess='false'" /manifest:embed /DEBUG:FASTLINK /PDB:"C:\USERS\CAMEL\DESKTOP\BANKAPP\DEBUG\BANKAPP.PDB" /SUBSYSTEM:CONSOLE /TLBID:1 /DYNAMICBASE /NXCOMPAT /IMPLIB:"C:\USERS\CAMEL\DESKTOP\BANKAPP\DEBUG\BANKAPP.LIB" /MACHINE:X86 DEBUG\BANCA.OBJ
DEBUG\BANKAPP.OBJ
DEBUG\CONT.OBJ
DEBUG\EXCEPTIONS.OBJ
